{
  "palette": {
    "common": { "black": "#000", "white": "#fff" },
    "background": {
      "paper": "#fff",
      "default": "#fafafa",
      "fade": "#6e6d72",
      "darkFade": "#515152fc"
    },
    "primary": {
      "light": "rgba(226, 213, 185, 1)",
      "main": "rgba(218, 185, 122, 1)",
      "dark": "rgba(165, 131, 79, 1)",
      "contrastText": "rgba(255, 255, 255, 1)"
    },
    "secondary": {
      "light": "rgba(208, 210, 211, 1)",
      "main": "rgba(166, 168, 171, 1)",
      "dark": "rgba(218, 185, 122, 1)",
      "contrastText": "rgba(255, 255, 255, 1)"
    },
    "error": {
      "light": "#e57373",
      "main": "#f44336",
      "dark": "#d32f2f",
      "contrastText": "#fff"
    },
    "text": {
      "primary": "rgba(0, 0, 0, 0.87)",
      "secondary": "rgba(0, 0, 0, 0.54)",
      "disabled": "rgba(0, 0, 0, 0.38)",
      "hint": "rgba(0, 0, 0, 0.38)"
    }
  }
}
